﻿
8
pixil-frame-0 ({0}).png
0 "A"
1 "B"
2 "C"
3 "D"
4 "E"
5 "F"
6 "G"
7 "H"
8 "I"
9 "j"
10 "K"
11 "L"
12 "M"
13 "N"
14 "O"
15 "P"
16 "Q"
17 "R"
18 "S"
19 "T"
20 "U"
21 "V"
22 "W"
23 "X"
24 "Y"
25 "Z"
26 "А"
27 "Б"
28 "В"
29 "Г"
30 "Д"
31 "Е"
32 "Ж"
33 "З"
34 "И"
35 "Й"
36 "К"
37 "Л"
38 "М"
39 "Н"
40 "О"
41 "П"
42 "Р"
43 "С"
44 "Т"
45 "У"
46 "Ф"
47 "Х"
48 "Ц"
49 "Ч"
50 "Ш"
51 "Щ"
52 "Ъ"
53 "Ы"
54 "Ь"
55 "Э"
56 "Ю"
57 "Я"
58 " "
59 "."
60 ","
61 ";"
62 "+"
63 "*"
64 "/"
65 "\"
66 "!"
67 "?"
68 "("
69 ")"
70 "%"
71 "1"
72 "2"
73 "3"
74 "4"
75 "5"
76 "6"
77 "7"
78 "8"
79 "9"
80 "0"